module studapp

go 1.17

require (
	github.com/PuerkitoBio/purell v1.1.1 // indirect
	github.com/PuerkitoBio/urlesc v0.0.0-20170810143723-de5bf2ad4578 // indirect
	github.com/asaskevich/govalidator v0.0.0-20200907205600-7a23bdc65eef // indirect
	github.com/badoux/checkmail v1.2.1 // indirect
	github.com/dgrijalva/jwt-go v3.2.0+incompatible // indirect
	github.com/go-openapi/analysis v0.20.1 // indirect
	github.com/go-openapi/errors v0.20.1 // indirect
	github.com/go-openapi/jsonpointer v0.19.5 // indirect
	github.com/go-openapi/jsonreference v0.19.6 // indirect
	github.com/go-openapi/loads v0.21.0 // indirect
	github.com/go-openapi/runtime v0.21.1 // indirect
	github.com/go-openapi/spec v0.20.4 // indirect
	github.com/go-openapi/strfmt v0.21.0 // indirect
	github.com/go-openapi/swag v0.19.15 // indirect
	github.com/go-openapi/validate v0.20.3 // indirect
	github.com/go-stack/stack v1.8.0 // indirect
	github.com/gorilla/mux v1.8.0 // indirect
	github.com/jinzhu/gorm v1.9.16 // indirect
	github.com/jinzhu/inflection v1.0.0 // indirect
	github.com/joho/godotenv v1.4.0 // indirect
	github.com/josharian/intern v1.0.0 // indirect
	github.com/lib/pq v1.10.4 // indirect
	github.com/mailru/easyjson v0.7.6 // indirect
	github.com/mitchellh/mapstructure v1.4.1 // indirect
	github.com/oklog/ulid v1.3.1 // indirect
	go.mongodb.org/mongo-driver v1.7.3 // indirect
	golang.org/x/crypto v0.0.0-20220128200615-198e4374d7ed // indirect
	golang.org/x/net v0.0.0-20211112202133-69e39bad7dc2 // indirect
	golang.org/x/text v0.3.7 // indirect
	gopkg.in/yaml.v2 v2.4.0 // indirect
)
